INDEX VERSION 1.131+C:\FSI\.metadata\.plugins\org.eclipse.jdt.core
1697886153.index
4108727661.index
3065916431.index
163172794.index
1299022128.index
1498219845.index
305854171.index
4041092966.index
4155206848.index
3133528496.index
2760875868.index
2422754693.index
1115467115.index
1631113997.index
1995173708.index
3974580528.index
2088447730.index
30765161.index
